%YAML 1.1
%TAG !u! tag:unity3d.com,2011:
--- !u!114 &11400000
MonoBehaviour:
  m_ObjectHideFlags: 0
  m_CorrespondingSourceObject: {fileID: 0}
  m_PrefabInstance: {fileID: 0}
  m_PrefabAsset: {fileID: 0}
  m_GameObject: {fileID: 0}
  m_Enabled: 1
  m_EditorHideFlags: 0
  m_Script: {fileID: 11500000, guid: d3699dddaa9a7dd47b2f50d0eaab42c6, type: 3}
  m_Name: GameLevel00
  m_EditorClassIdentifier: 
  levelScenes:
  - Level00_Scene00
  - Level00_Scene01
  - Level00_Scene02
